dump.vcd
$date
    Aug 30, 2024  04:22:14
$end
$version
    TOOL:	xmsim	23.09-s001
$end
$timescale
    1 ns
$end

$scope module test_bench $end
$var reg       1 !    hclk $end

$scope module _if $end
$var wire      1 "    hclk  $end
$var reg       1 #    hresetn $end
$var reg       1 $    hselapb $end
$var reg       1 %    hwrite $end
$var reg       1 &    hresp $end
$var reg       1 '    hready $end
$var reg       2 (    htrans [1:0] $end
$var reg      32 )    haddr [31:0] $end
$var reg      32 *    hwdata [31:0] $end
$var reg      32 +    hrdata [31:0] $end
$var reg      32 ,    prdata [31:0] $end
$var reg      32 -    pwdata [31:0] $end
$var reg      32 .    paddr [31:0] $end
$var reg       1 /    penable $end
$var reg       1 0    psel $end
$var reg       1 1    pwrite $end
$upscope $end


$scope module tb $end
$var wire      1 2    hclk  $end
$var wire      1 3    hresetn  $end
$var wire      1 4    hselapb  $end
$var wire      1 5    hwrite  $end
$var wire     32 6    haddr [31:0] $end
$var wire     32 7    hwdata [31:0] $end
$var wire     32 8    prdata [31:0] $end
$var wire      2 9    htrans [1:0] $end
$var reg       1 :    hresp $end
$var reg       1 ;    hready $end
$var reg      32 <    hrdata [31:0] $end
$var reg       1 =    psel $end
$var reg       1 >    penable $end
$var reg       1 ?    pwrite $end
$var reg      32 @    paddr [31:0] $end
$var reg      32 A    pwdata [31:0] $end
$var parameter  3 B    idle $end
$var parameter  3 C    read $end
$var parameter  3 D    reanble $end
$var parameter  3 E    Wwait $end
$var parameter  3 F    write $end
$var parameter  3 G    write_p $end
$var parameter  3 H    wenable $end
$var parameter  3 I    wenable_p $end
$var reg      32 J    haddr_temp [31:0] $end
$var reg      32 K    hwdata_temp [31:0] $end
$var reg       3 L    present_state [2:0] $end
$var reg       3 M    next_state [2:0] $end
$var reg       1 N    valid $end
$var reg       1 O    hwrite_temp $end
$upscope $end

$upscope $end

$enddefinitions $end
$dumpvars
b111 I
b110 H
b101 G
b100 F
b11 E
b10 D
b1 C
b0 B
0!
0"
0#
x$
x%
x&
x'
bx (
bx )
bx *
bx +
bx ,
bx -
bx .
x/
x0
x1
02
03
x4
x5
bx 6
bx 7
bx 8
bx 9
x:
x;
bx <
x=
x>
x?
bx @
bx A
bx J
bx K
bx L
bx M
xN
xO
$end
#10
1!
1#
13
12
1"
#20
0!
02
0"
#25
b1 (
b1 9
0N
#30
1!
b10 (
b10 9
12
1"
1$
b10111001101 )
1%
b10000 *
b10000 7
15
b10111001101 6
14
1N
#40
0!
02
0"
#50
1!
12
1"
#60
0!
02
0"
#70
1!
12
1"
#75
b110011010110 )
0%
b0 *
b0 7
05
b110011010110 6
#80
0!
02
0"
#90
1!
12
1"
#100
0!
02
0"
#105
1%
15
#110
1!
12
1"
#120
0!
02
0"
#130
0#
1!
12
1"
03
b0 L
0=
0>
0;
b11 M
0'
0/
00
0%
05
#140
0!
02
0"
#150
1#
b11 (
1!
12
1"
b11 9
13
b11 L
b110011010110 J
0O
b101 M
#160
0!
02
0"
#170
1!
12
1"
b101 L
1=
b110011010110 @
b0 A
1?
b111 M
11
b0 -
b110011010110 .
10
#180
0!
02
0"
#190
1!
12
1"
b111 L
1>
1;
b1 M
1'
1/
#200
0!
02
0"
#210
1!
12
1"
b1 L
0?
0>
0;
b10 M
0'
0/
01
#220
0!
02
0"
#230
1!
12
1"
b10 L
1>
1;
b1 M
1'
1/
#240
0!
02
0"
#250
0#
1!
12
1"
03
b0 L
0=
0>
0;
0'
0/
00
